@startuml

title __MODEL's Class Diagram__\n

  package cric {
    package cric.model {
      class Crisis {
          - id : String
          - longitude : Double
          - latitude : Double
          - radius : Double
          - description : String
          - type : String
          - status : Boolean
          - beginDate : Date
          - endDate : Date
          - Crisis()
          + getId()
          + getLongitude()
          + getLatitude()
          + getRadius()
          + getDescription()
          + setId()
          + setLongitude()
          + setLatitude()
          + setRadius()
          + setDescription()
          + setType()
          + setStatus()
          + setBeginDate()
          + setEndDate()
          + getType()
          + getStatus()
          + getBeginDate()
          + getEndDate()
      }
    }
  }
  

  package cric {
    package cric.model {
      class Crisis.Builder {
          - id : String
          - longitude : Double
          - latitude : Double
          - radius : Double
          - description : String
          - type : String
          - status : Boolean
          - beginDate : Date
          - endDate : Date
          + Builder()
          + description()
          + type()
          + status()
          + beginDate()
          + endDate()
          + build()
      }
    }
  }
  

  

  package cric {
    package cric.model {
      class Place {
          - id : String
          - longitude : Double
          - latitude : Double
          - name : String
          - userId : String
          - danger : Boolean
          + Place()
          + Place()
          + getId()
          + getLongitude()
          + getLatitude()
          + getName()
          + setId()
          + setLongitude()
          + setLatitude()
          + setName()
          + setUserId()
          + setDanger()
          + getUserId()
          + getDanger()
      }
    }
  }
  

  package cric {
    package cric.model {
      class User {
          {static} - COMMON_USER : String
          {static} - ADMIN : String
          - id : String
          - username : String
          - password : String
          - role : String
          - places : List<Place>
          - notification : Boolean
          - User()
          + getUsername()
          + getPassword()
          + getId()
          + setUsername()
          + setPassword()
          + getRole()
          + getPlaces()
          + getNotification()
          + setId()
          + setRole()
          + setPlaces()
          + setNotification()
      }
    }
  }


  package cric {
      package cric.model {
        class User.Builder {
            - id : String
            - username : String
            - password : String
            - role : String
            - places : List<Place>
            - notification : Boolean
            + Builder()
            + places()
            + withPlace()
            + notification()
            + adminRole()
            + role()
            + build()
        }
      }
    }

  Crisis +-down- Crisis.Builder
  User +-down- User.Builder


right footer


PlantUML diagram generated by SketchIt! (https://bitbucket.org/pmesmeur/sketch.it)
For more information about this tool, please contact philippe.mesmeur@gmail.com
endfooter

@enduml
