@startuml

title __UTIL's Class Diagram__\n

  package cric {
    package cric.handler {
      package cric.handler.util {
        enum RequestType {
          POST_USER
          GET_USER
          UPDATE_USER
          POST_PLACE
          GET_PLACE
          GET_PLACE_WITH_ID
          UPDATE_PLACE_WITH_ID
          DELETE_PLACE
          POST_CRISIS
          UPDATE_CRISIS
          UNKNOWN
          GET_CRISES_FROM_ARIA
          verb
          regex
        }
      }
    }
  }
  

  package cric {
    package cric.handler {
      package cric.handler.util {
        class Response {
            - body : String
            - code : int
            + Response()
            + Response()
            + getBody()
            + getCode()
            + setBody()
            + setCode()
        }
      }
    }
  }
  



right footer


PlantUML diagram generated by SketchIt! (https://bitbucket.org/pmesmeur/sketch.it)
For more information about this tool, please contact philippe.mesmeur@gmail.com
endfooter

@enduml
